X	Y	
6,25000000000000E-001	3,99877281188965E+001	
1,25000000000000E+000	8,39284002780914E-001	
1,87500000000000E+000	2,00732603669167E-001	
2,50000000000000E+000	1,07548899948597E-001	
3,12500000000000E+000	6,47747144103050E-002	
3,75000000000000E+000	3,82192283868790E-002	
4,37500000000000E+000	2,63380613178015E-002	
5,00000000000000E+000	2,01672259718180E-002	
5,62500000000000E+000	1,85525603592396E-002	
6,25000000000000E+000	1,65568944066763E-002	
6,87500000000000E+000	1,60097964107990E-002	
7,50000000000000E+000	1,57429501414299E-002	
8,12500000000000E+000	1,99241433292627E-002	
8,75000000000000E+000	1,83481425046921E-002	
9,37500000000000E+000	1,17538170889020E-002	
1,00000000000000E+001	9,46871750056744E-003	
1,06250000000000E+001	1,11881559714675E-002	
1,12500000000000E+001	1,35021107271314E-002	
1,18750000000000E+001	1,29045695066452E-002	
1,25000000000000E+001	1,22392969205976E-002	
1,31250000000000E+001	1,37069243937731E-002	
1,37500000000000E+001	1,71175580471754E-002	
1,43750000000000E+001	2,63132788240910E-002	
1,50000000000000E+001	4,46517877280712E-002	
1,56250000000000E+001	8,54070559144020E-002	
1,62500000000000E+001	1,68209150433540E-001	
1,68750000000000E+001	1,51184871792793E-001	
1,75000000000000E+001	6,29623532295227E-002	
1,81250000000000E+001	2,79128439724445E-002	
1,87500000000000E+001	2,12115105241537E-002	
1,93750000000000E+001	2,34943889081478E-002	
2,00000000000000E+001	4,56213802099228E-002	
2,06250000000000E+001	5,35913929343224E-002	
2,12500000000000E+001	3,59586179256439E-002	
2,18750000000000E+001	1,89033523201942E-002	
2,25000000000000E+001	1,60677935928106E-002	
2,31250000000000E+001	1,61602776497602E-002	
2,37500000000000E+001	1,36001305654645E-002	
2,43750000000000E+001	1,30154648795724E-002	
2,50000000000000E+001	1,38876521959901E-002	
2,56250000000000E+001	1,31422691047192E-002	
2,62500000000000E+001	1,40911303460598E-002	
2,68750000000000E+001	1,26879261806607E-002	
2,75000000000000E+001	1,45072825253010E-002	
2,81250000000000E+001	2,43245959281921E-002	
2,87500000000000E+001	2,66699325293303E-002	
2,93750000000000E+001	2,24529597908258E-002	
3,00000000000000E+001	2,44658049196005E-002	
3,06250000000000E+001	2,81512532383204E-002	
3,12500000000000E+001	2,50488258898258E-002	
3,18750000000000E+001	2,61907186359167E-002	
3,25000000000000E+001	3,90646383166313E-002	
3,31250000000000E+001	5,68736158311367E-002	
3,37500000000000E+001	5,93383312225342E-002	
3,43750000000000E+001	5,26322647929192E-002	
3,50000000000000E+001	4,95231710374355E-002	
3,56250000000000E+001	4,31126952171326E-002	
3,62500000000000E+001	3,36856618523598E-002	
3,68750000000000E+001	2,49597989022732E-002	
3,75000000000000E+001	2,01977826654911E-002	
3,81250000000000E+001	1,96167863905430E-002	
3,87500000000000E+001	1,72490179538727E-002	
3,93750000000000E+001	1,50280920788646E-002	
4,00000000000000E+001	1,56487952917814E-002	
4,06250000000000E+001	2,04362943768501E-002	
4,12500000000000E+001	2,60148067027330E-002	
4,18750000000000E+001	2,25177966058254E-002	
4,25000000000000E+001	1,88823211938143E-002	
4,31250000000000E+001	2,09973454475403E-002	
4,37500000000000E+001	1,85604151338339E-002	
4,43750000000000E+001	1,94913409650326E-002	
4,50000000000000E+001	2,09080800414085E-002	
4,56250000000000E+001	2,55352538079023E-002	
4,62500000000000E+001	3,00432741641998E-002	
4,68750000000000E+001	3,90012711286545E-002	
4,75000000000000E+001	6,31641745567322E-002	
4,81250000000000E+001	1,60202547907829E-001	
4,87500000000000E+001	8,34846735000610E-001	
4,93750000000000E+001	6,93636846542358E+000	
5,00000000000000E+001	8,74423694610596E+000	
5,06250000000000E+001	2,54544901847839E+000	
5,12500000000000E+001	2,43734002113342E-001	
5,18750000000000E+001	8,87390077114105E-002	
5,25000000000000E+001	4,66678813099861E-002	
5,31250000000000E+001	3,87057848274708E-002	
5,37500000000000E+001	3,82024571299553E-002	
5,43750000000000E+001	3,69819663465023E-002	
5,50000000000000E+001	3,71373780071735E-002	
5,56250000000000E+001	4,76285964250565E-002	
5,62500000000000E+001	6,16744048893452E-002	
5,68750000000000E+001	7,42718428373337E-002	
5,75000000000000E+001	9,95559766888618E-002	
5,81250000000000E+001	1,49602279067039E-001	
5,87500000000000E+001	1,18917338550091E-001	
5,93750000000000E+001	6,75868093967438E-002	
6,00000000000000E+001	6,71775639057159E-002	
6,06250000000000E+001	7,15304240584373E-002	
6,12500000000000E+001	8,07620733976364E-002	
6,18750000000000E+001	6,79464116692543E-002	
6,25000000000000E+001	6,21360875666142E-002	
6,31250000000000E+001	5,45291528105736E-002	
6,37500000000000E+001	4,20748740434647E-002	
6,43750000000000E+001	3,59543673694134E-002	
6,50000000000000E+001	4,91589196026325E-002	
6,56250000000000E+001	8,32834020256996E-002	
6,62500000000000E+001	1,17645688354969E-001	
6,68750000000000E+001	8,76409634947777E-002	
6,75000000000000E+001	5,50071075558662E-002	
6,81250000000000E+001	5,09153045713902E-002	
6,87500000000000E+001	4,40630689263344E-002	
6,93750000000000E+001	4,74439188838005E-002	
7,00000000000000E+001	3,76017093658447E-002	
7,06250000000000E+001	2,95273438096046E-002	
7,12500000000000E+001	2,58535258471966E-002	
7,18750000000000E+001	2,33247093856335E-002	
7,25000000000000E+001	2,20425706356764E-002	
7,31250000000000E+001	2,26226225495338E-002	
7,37500000000000E+001	2,53354292362928E-002	
7,43750000000000E+001	3,17851752042770E-002	
7,50000000000000E+001	3,50072607398033E-002	
7,56250000000000E+001	3,37455421686172E-002	
7,62500000000000E+001	3,45227569341660E-002	
7,68750000000000E+001	3,12989540398121E-002	
7,75000000000000E+001	2,74089332669973E-002	
7,81250000000000E+001	3,20305079221725E-002	
7,87500000000000E+001	4,64286021888256E-002	
7,93750000000000E+001	5,94044104218483E-002	
8,00000000000000E+001	5,76282590627670E-002	
8,06250000000000E+001	5,05539290606976E-002	
8,12500000000000E+001	5,21784722805023E-002	
8,18750000000000E+001	6,83081224560738E-002	
8,25000000000000E+001	9,24452692270279E-002	
8,31250000000000E+001	9,82592478394508E-002	
8,37500000000000E+001	8,06204825639725E-002	
8,43750000000000E+001	6,35542646050453E-002	
8,50000000000000E+001	6,32127150893211E-002	
8,56250000000000E+001	6,10213950276375E-002	
8,62500000000000E+001	4,95253577828407E-002	
8,68750000000000E+001	5,76051101088524E-002	
8,75000000000000E+001	5,78381940722466E-002	
8,81250000000000E+001	5,56534342467785E-002	
8,87500000000000E+001	4,18130718171597E-002	
8,93750000000000E+001	3,06653752923012E-002	
9,00000000000000E+001	3,35600636899471E-002	
9,06250000000000E+001	4,99506033957005E-002	
9,12500000000000E+001	6,03014752268791E-002	
9,18750000000000E+001	5,06059527397156E-002	
9,25000000000000E+001	3,71693447232246E-002	
9,31250000000000E+001	3,13611403107643E-002	
9,37500000000000E+001	2,69811339676380E-002	
9,43750000000000E+001	2,41969227790833E-002	
9,50000000000000E+001	2,23826859146357E-002	
9,56250000000000E+001	2,72946581244469E-002	
9,62500000000000E+001	3,06508522480726E-002	
9,68750000000000E+001	3,54247465729713E-002	
9,75000000000000E+001	4,23219352960587E-002	
9,81250000000000E+001	5,04074878990650E-002	
9,87500000000000E+001	2,32425585389137E-001	
9,93750000000000E+001	8,44704747200012E-001	
1,00000000000000E+002	7,11519777774811E-001	
1,00625000000000E+002	1,27524778246880E-001	
1,01250000000000E+002	4,99734804034233E-002	
1,01875000000000E+002	5,20466379821301E-002	
1,02500000000000E+002	5,73552399873734E-002	
1,03125000000000E+002	5,32288663089275E-002	
1,03750000000000E+002	4,43290360271931E-002	
1,04375000000000E+002	4,53456602990627E-002	
1,05000000000000E+002	5,02307564020157E-002	
1,05625000000000E+002	6,19557239115238E-002	
1,06250000000000E+002	8,38304609060287E-002	
1,06875000000000E+002	8,10543522238731E-002	
1,07500000000000E+002	7,33609572052956E-002	
1,08125000000000E+002	8,32697227597237E-002	
1,08750000000000E+002	6,45084977149963E-002	
1,09375000000000E+002	5,54353818297386E-002	
1,10000000000000E+002	5,40153123438358E-002	
1,10625000000000E+002	5,01447394490242E-002	
1,11250000000000E+002	4,80368621647358E-002	
1,11875000000000E+002	4,21355031430721E-002	
1,12500000000000E+002	4,48917187750340E-002	
1,13125000000000E+002	4,87786233425140E-002	
1,13750000000000E+002	5,03086335957050E-002	
1,14375000000000E+002	5,66098764538765E-002	
1,15000000000000E+002	5,67499957978725E-002	
1,15625000000000E+002	5,98644651472569E-002	
1,16250000000000E+002	6,75765350461006E-002	
1,16875000000000E+002	5,60323633253574E-002	
1,17500000000000E+002	4,74760271608829E-002	
1,18125000000000E+002	4,91173490881920E-002	
1,18750000000000E+002	4,94059808552265E-002	
1,19375000000000E+002	4,78004962205887E-002	
1,20000000000000E+002	4,37729991972446E-002	
1,20625000000000E+002	4,05226089060307E-002	
1,21250000000000E+002	3,91753353178501E-002	
1,21875000000000E+002	3,68750914931297E-002	
1,22500000000000E+002	3,50858382880688E-002	
1,23125000000000E+002	3,51964905858040E-002	
1,23750000000000E+002	3,86500731110573E-002	
1,24375000000000E+002	4,78012114763260E-002	
1,25000000000000E+002	4,99586574733257E-002	
1,25625000000000E+002	5,30363395810127E-002	
1,26250000000000E+002	5,15853352844715E-002	
1,26875000000000E+002	4,05490994453430E-002	
1,27500000000000E+002	3,71628701686859E-002	
1,28125000000000E+002	4,02178280055523E-002	
1,28750000000000E+002	4,41627502441406E-002	
1,29375000000000E+002	4,11274097859859E-002	
1,30000000000000E+002	3,41847762465477E-002	
1,30625000000000E+002	3,17832268774509E-002	
1,31250000000000E+002	2,87460237741470E-002	
1,31875000000000E+002	3,99752184748650E-002	
1,32500000000000E+002	5,62293007969856E-002	
1,33125000000000E+002	6,02195113897324E-002	
1,33750000000000E+002	5,96383139491081E-002	
1,34375000000000E+002	5,45204803347588E-002	
1,35000000000000E+002	4,40360382199287E-002	
1,35625000000000E+002	3,34515571594238E-002	
1,36250000000000E+002	3,13141681253910E-002	
1,36875000000000E+002	3,53482551872730E-002	
1,37500000000000E+002	4,10486198961735E-002	
1,38125000000000E+002	4,22975532710552E-002	
1,38750000000000E+002	3,54626178741455E-002	
1,39375000000000E+002	3,62095795571804E-002	
1,40000000000000E+002	4,57410253584385E-002	
1,40625000000000E+002	5,77530264854431E-002	
1,41250000000000E+002	6,17675147950649E-002	
1,41875000000000E+002	5,89647069573402E-002	
1,42500000000000E+002	4,95956167578697E-002	
1,43125000000000E+002	4,86579239368439E-002	
1,43750000000000E+002	4,83524948358536E-002	
1,44375000000000E+002	4,79574687778950E-002	
1,45000000000000E+002	5,40853552520275E-002	
1,45625000000000E+002	4,98610623180866E-002	
1,46250000000000E+002	4,63194586336613E-002	
1,46875000000000E+002	4,71316613256931E-002	
1,47500000000000E+002	4,81624864041805E-002	
1,48125000000000E+002	4,87228110432625E-002	
1,48750000000000E+002	1,11902147531509E-001	
1,49375000000000E+002	2,18059062957764E-001	
1,50000000000000E+002	1,26057609915733E-001	
1,50625000000000E+002	4,62366901338100E-002	
1,51250000000000E+002	4,30107377469540E-002	
1,51875000000000E+002	3,97882871329784E-002	
1,52500000000000E+002	4,02004122734070E-002	
1,53125000000000E+002	3,41220386326313E-002	
1,53750000000000E+002	6,07627816498280E-002	
1,54375000000000E+002	6,40040561556816E-002	
1,55000000000000E+002	3,45463789999485E-002	
1,55625000000000E+002	3,23313176631927E-002	
1,56250000000000E+002	3,09660155326128E-002	
1,56875000000000E+002	2,97619309276342E-002	
1,57500000000000E+002	2,84290928393602E-002	
1,58125000000000E+002	2,77656167745590E-002	
1,58750000000000E+002	2,47524920850992E-002	
1,59375000000000E+002	1,97345539927483E-002	
1,60000000000000E+002	2,10919044911861E-002	
1,60625000000000E+002	2,30677984654903E-002	
1,61250000000000E+002	2,48857792466879E-002	
1,61875000000000E+002	3,50422747433186E-002	
1,62500000000000E+002	2,37930323928595E-002	
1,63125000000000E+002	1,64109393954277E-002	
1,63750000000000E+002	1,62318926304579E-002	
1,64375000000000E+002	1,65938977152109E-002	
1,65000000000000E+002	1,95083189755678E-002	
1,65625000000000E+002	2,58922688663006E-002	
1,66250000000000E+002	2,36562993377447E-002	
1,66875000000000E+002	1,61501951515675E-002	
1,67500000000000E+002	1,27326194196939E-002	
1,68125000000000E+002	1,17219109088182E-002	
1,68750000000000E+002	1,10185202211142E-002	
1,69375000000000E+002	1,04768313467503E-002	
1,70000000000000E+002	1,08019225299358E-002	
1,70625000000000E+002	1,37851675972342E-002	
1,71250000000000E+002	1,71097181737423E-002	
1,71875000000000E+002	1,62366088479757E-002	
1,72500000000000E+002	2,06746347248554E-002	
1,73125000000000E+002	2,08438392728567E-002	
1,73750000000000E+002	1,43888210877776E-002	
1,74375000000000E+002	1,29390917718410E-002	
1,75000000000000E+002	1,25411748886108E-002	
1,75625000000000E+002	1,19817946106195E-002	
1,76250000000000E+002	1,24202864244580E-002	
1,76875000000000E+002	1,45998084917665E-002	
1,77500000000000E+002	1,55228590592742E-002	
1,78125000000000E+002	1,53326597064734E-002	
1,78750000000000E+002	1,82301457971334E-002	
1,79375000000000E+002	1,88948381692171E-002	
1,80000000000000E+002	3,39276157319546E-002	
1,80625000000000E+002	5,23558557033539E-002	
1,81250000000000E+002	5,68885281682014E-002	
1,81875000000000E+002	1,14501759409904E-001	
1,82500000000000E+002	1,02299228310585E-001	
1,83125000000000E+002	2,49278433620930E-002	
1,83750000000000E+002	2,15180329978466E-002	
1,84375000000000E+002	1,63786914199591E-002	
1,85000000000000E+002	1,29026323556900E-002	
1,85625000000000E+002	1,21562909334898E-002	
1,86250000000000E+002	1,15625085309148E-002	
1,86875000000000E+002	2,62139607220888E-002	
1,87500000000000E+002	4,43157553672791E-002	
1,88125000000000E+002	2,45127268135548E-002	
1,88750000000000E+002	1,48991048336029E-002	
1,89375000000000E+002	1,38818426057696E-002	
1,90000000000000E+002	1,51510061696172E-002	
1,90625000000000E+002	1,32495602592826E-002	
1,91250000000000E+002	1,32576469331980E-002	
1,91875000000000E+002	1,23363081365824E-002	
1,92500000000000E+002	1,17334136739373E-002	
1,93125000000000E+002	1,20248785242438E-002	
1,93750000000000E+002	1,17806652560830E-002	
1,94375000000000E+002	1,57024674117565E-002	
1,95000000000000E+002	1,12978341057897E-002	
1,95625000000000E+002	7,39473104476929E-003	
1,96250000000000E+002	8,16824473440647E-003	
1,96875000000000E+002	6,90209539607167E-003	
1,97500000000000E+002	6,36404100805521E-003	
1,98125000000000E+002	1,04286344721913E-002	
1,98750000000000E+002	7,43674412369728E-002	
1,99375000000000E+002	9,95052009820938E-002	
2,00000000000000E+002	3,28597612679005E-002	
2,00625000000000E+002	8,01797211170197E-003	
2,01250000000000E+002	6,65388396009803E-003	
2,01875000000000E+002	6,83518825098872E-003	
2,02500000000000E+002	7,38047156482935E-003	
2,03125000000000E+002	7,08379596471786E-003	
2,03750000000000E+002	7,53486063331366E-003	
2,04375000000000E+002	7,12377671152353E-003	
2,05000000000000E+002	6,22349232435226E-003	
2,05625000000000E+002	6,94250361993909E-003	
2,06250000000000E+002	7,80869647860527E-003	
2,06875000000000E+002	7,71758146584034E-003	
2,07500000000000E+002	7,98210967332125E-003	
2,08125000000000E+002	8,32363311201334E-003	
2,08750000000000E+002	8,82518757134676E-003	
2,09375000000000E+002	8,90737120062113E-003	
2,10000000000000E+002	9,03452560305595E-003	
2,10625000000000E+002	9,05410572886467E-003	
2,11250000000000E+002	9,67716611921787E-003	
2,11875000000000E+002	1,10767977312207E-002	
2,12500000000000E+002	1,27686457708478E-002	
2,13125000000000E+002	1,68750695884228E-002	
2,13750000000000E+002	1,47897386923432E-002	
2,14375000000000E+002	1,20804402977228E-002	
2,15000000000000E+002	1,36523926630616E-002	
2,15625000000000E+002	1,20155047625303E-002	
2,16250000000000E+002	1,06986565515399E-002	
2,16875000000000E+002	1,05033172294497E-002	
2,17500000000000E+002	1,14447623491287E-002	
2,18125000000000E+002	1,08930068090558E-002	
2,18750000000000E+002	1,25841684639454E-002	
2,19375000000000E+002	1,42432767897844E-002	
2,20000000000000E+002	1,48533266037703E-002	
2,20625000000000E+002	2,35912818461657E-002	
2,21250000000000E+002	3,12456488609314E-002	
2,21875000000000E+002	3,94133590161800E-002	
2,22500000000000E+002	5,48614226281643E-002	
2,23125000000000E+002	3,67272458970547E-002	
2,23750000000000E+002	1,30988331511617E-002	
2,24375000000000E+002	1,25106712803245E-002	
2,25000000000000E+002	1,10009405761957E-002	
2,25625000000000E+002	2,83444505184889E-002	
2,26250000000000E+002	3,10611613094807E-002	
2,26875000000000E+002	1,20439287275076E-002	
2,27500000000000E+002	1,12372264266014E-002	
2,28125000000000E+002	1,36285508051515E-002	
2,28750000000000E+002	1,34361023083329E-002	
2,29375000000000E+002	1,21485320851207E-002	
2,30000000000000E+002	1,22162057086825E-002	
2,30625000000000E+002	1,30441924557090E-002	
2,31250000000000E+002	1,47447185590863E-002	
2,31875000000000E+002	1,52511904016137E-002	
2,32500000000000E+002	1,43790757283568E-002	
2,33125000000000E+002	1,48078016936779E-002	
2,33750000000000E+002	1,27856759354472E-002	
2,34375000000000E+002	1,28648187965155E-002	
2,35000000000000E+002	1,26719921827316E-002	
2,35625000000000E+002	1,14896157756448E-002	
2,36250000000000E+002	1,15817980840802E-002	
2,36875000000000E+002	1,12832877784967E-002	
2,37500000000000E+002	1,20226824656129E-002	
2,38125000000000E+002	1,27093214541674E-002	
2,38750000000000E+002	1,07868723571301E-002	
2,39375000000000E+002	1,03183686733246E-002	
2,40000000000000E+002	1,10610639676452E-002	
2,40625000000000E+002	1,02526536211371E-002	
2,41250000000000E+002	9,07351262867451E-003	
2,41875000000000E+002	1,25236315652728E-002	
2,42500000000000E+002	1,41135454177856E-002	
2,43125000000000E+002	1,26883862540126E-002	
2,43750000000000E+002	1,26249548047781E-002	
2,44375000000000E+002	1,23961688950658E-002	
2,45000000000000E+002	1,32671464234591E-002	
2,45625000000000E+002	1,40083478763700E-002	
2,46250000000000E+002	1,16879660636187E-002	
2,46875000000000E+002	1,20012862607837E-002	
2,47500000000000E+002	1,16885043680668E-002	
2,48125000000000E+002	1,82706248015165E-002	
2,48750000000000E+002	5,28362691402435E-002	
2,49375000000000E+002	4,55520711839199E-002	
2,50000000000000E+002	1,33171631023288E-002	
2,50625000000000E+002	1,00538562983274E-002	
2,51250000000000E+002	1,24021209776402E-002	
2,51875000000000E+002	1,11921001225710E-002	
2,52500000000000E+002	1,00340321660042E-002	
2,53125000000000E+002	9,28989332169294E-003	
2,53750000000000E+002	7,81855266541243E-003	
2,54375000000000E+002	7,40542588755488E-003	
2,55000000000000E+002	7,34437024220824E-003	
2,55625000000000E+002	6,81459903717041E-003	
2,56250000000000E+002	6,92751677706838E-003	
2,56875000000000E+002	7,26106716319919E-003	
2,57500000000000E+002	5,98990684375167E-003	
2,58125000000000E+002	6,29030354321003E-003	
2,58750000000000E+002	6,93446956574917E-003	
2,59375000000000E+002	7,53059471026063E-003	
2,60000000000000E+002	7,41573702543974E-003	
2,60625000000000E+002	7,46280932798982E-003	
2,61250000000000E+002	7,78777338564396E-003	
2,61875000000000E+002	7,59793585166335E-003	
2,62500000000000E+002	9,05758515000343E-003	
2,63125000000000E+002	9,77017730474472E-003	
2,63750000000000E+002	1,05906091630459E-002	
2,64375000000000E+002	1,10134808346629E-002	
2,65000000000000E+002	1,14240013062954E-002	
2,65625000000000E+002	1,07585340738297E-002	
2,66250000000000E+002	1,12551720812917E-002	
2,66875000000000E+002	1,32783567532897E-002	
2,67500000000000E+002	1,40286386013031E-002	
2,68125000000000E+002	1,31859304383397E-002	
2,68750000000000E+002	1,11947739496827E-002	
2,69375000000000E+002	1,12339202314615E-002	
2,70000000000000E+002	1,10196406021714E-002	
2,70625000000000E+002	1,04724960401654E-002	
2,71250000000000E+002	9,99557599425316E-003	
2,71875000000000E+002	1,13488370552659E-002	
2,72500000000000E+002	1,42159983515739E-002	
2,73125000000000E+002	1,30626494064927E-002	
2,73750000000000E+002	1,33715383708477E-002	
2,74375000000000E+002	1,50530086830258E-002	
2,75000000000000E+002	1,32087320089340E-002	
2,75625000000000E+002	1,43884029239416E-002	
2,76250000000000E+002	1,82206500321627E-002	
2,76875000000000E+002	2,11418475955725E-002	
2,77500000000000E+002	2,29356437921524E-002	
2,78125000000000E+002	2,13105995208025E-002	
2,78750000000000E+002	2,34904643148184E-002	
2,79375000000000E+002	2,70988959819078E-002	
2,80000000000000E+002	2,70601771771908E-002	
2,80625000000000E+002	3,13552878797054E-002	
2,81250000000000E+002	3,46794687211514E-002	
2,81875000000000E+002	3,57812158763409E-002	
2,82500000000000E+002	3,48543450236320E-002	
2,83125000000000E+002	3,25948633253574E-002	
2,83750000000000E+002	3,18174287676811E-002	
2,84375000000000E+002	3,36719453334808E-002	
2,85000000000000E+002	3,20694632828236E-002	
2,85625000000000E+002	2,90272589772940E-002	
2,86250000000000E+002	2,41710375994444E-002	
2,86875000000000E+002	2,28167846798897E-002	
2,87500000000000E+002	2,06726044416428E-002	
2,88125000000000E+002	2,26985402405262E-002	
2,88750000000000E+002	2,36752945929766E-002	
2,89375000000000E+002	2,10030805319548E-002	
2,90000000000000E+002	2,08741836249828E-002	
2,90625000000000E+002	2,21940577030182E-002	
2,91250000000000E+002	2,31704395264387E-002	
2,91875000000000E+002	2,43967864662409E-002	
2,92500000000000E+002	2,20298115164042E-002	
2,93125000000000E+002	2,52025350928307E-002	
2,93750000000000E+002	2,69492268562317E-002	
2,94375000000000E+002	2,87737082690001E-002	
2,95000000000000E+002	3,66873033344746E-002	
2,95625000000000E+002	3,22805829346180E-002	
2,96250000000000E+002	3,44620272517204E-002	
2,96875000000000E+002	3,96770983934402E-002	
2,97500000000000E+002	3,78318838775158E-002	
2,98125000000000E+002	9,27974581718445E-002	
2,98750000000000E+002	1,95064678788185E-001	
2,99375000000000E+002	1,15854844450951E-001	
3,00000000000000E+002	3,26151885092258E-002	
3,00625000000000E+002	3,39030101895332E-002	
3,01250000000000E+002	3,14778573811054E-002	
3,01875000000000E+002	2,65388749539852E-002	
3,02500000000000E+002	2,50901971012354E-002	
3,03125000000000E+002	2,27992627769709E-002	
3,03750000000000E+002	2,08472665399313E-002	
3,04375000000000E+002	1,90605688840151E-002	
3,05000000000000E+002	1,69251579791307E-002	
3,05625000000000E+002	1,60835869610310E-002	
3,06250000000000E+002	1,44910812377930E-002	
3,06875000000000E+002	1,69396158307791E-002	
3,07500000000000E+002	1,70216467231512E-002	
3,08125000000000E+002	2,18545980751514E-002	
3,08750000000000E+002	1,64500121027231E-002	
3,09375000000000E+002	1,25720351934433E-002	
3,10000000000000E+002	1,17684034630656E-002	
3,10625000000000E+002	1,14704789593816E-002	
3,11250000000000E+002	1,16298543289304E-002	
3,11875000000000E+002	1,14664854481816E-002	
3,12500000000000E+002	1,16343935951591E-002	
3,13125000000000E+002	1,26417763531208E-002	
3,13750000000000E+002	1,17487115785480E-002	
3,14375000000000E+002	1,20519800111651E-002	
3,15000000000000E+002	1,06933712959290E-002	
3,15625000000000E+002	9,35394689440727E-003	
3,16250000000000E+002	1,03105315938592E-002	
3,16875000000000E+002	9,23836603760719E-003	
3,17500000000000E+002	8,91141779720783E-003	
3,18125000000000E+002	9,55118518322706E-003	
3,18750000000000E+002	9,18426923453808E-003	
3,19375000000000E+002	8,44157766550779E-003	
3,20000000000000E+002	7,46461749076843E-003	
3,20625000000000E+002	6,76801707595587E-003	
3,21250000000000E+002	7,68987787887454E-003	
3,21875000000000E+002	8,73544253408909E-003	
3,22500000000000E+002	9,76669695228338E-003	
3,23125000000000E+002	1,01016992703080E-002	
3,23750000000000E+002	9,56099107861519E-003	
3,24375000000000E+002	7,78134493157268E-003	
3,25000000000000E+002	7,00394529849291E-003	
3,25625000000000E+002	6,59882742911577E-003	
3,26250000000000E+002	5,89609798043966E-003	
3,26875000000000E+002	5,94619056209922E-003	
3,27500000000000E+002	5,59440208598971E-003	
3,28125000000000E+002	6,08563236892223E-003	
3,28750000000000E+002	5,73267927393317E-003	
3,29375000000000E+002	5,53861120715737E-003	
3,30000000000000E+002	5,53821865469217E-003	
3,30625000000000E+002	5,60118723660707E-003	
3,31250000000000E+002	5,11940615251660E-003	
3,31875000000000E+002	4,98954486101866E-003	
3,32500000000000E+002	5,65911270678043E-003	
3,33125000000000E+002	6,36469712480903E-003	
3,33750000000000E+002	5,92098990455270E-003	
3,34375000000000E+002	5,64006622880697E-003	
3,35000000000000E+002	4,99651255086064E-003	
3,35625000000000E+002	5,42350811883807E-003	
3,36250000000000E+002	5,22126164287329E-003	
3,36875000000000E+002	4,90388320758939E-003	
3,37500000000000E+002	4,58626216277480E-003	
3,38125000000000E+002	4,28904406726360E-003	
3,38750000000000E+002	4,33514779433608E-003	
3,39375000000000E+002	4,17537800967693E-003	
3,40000000000000E+002	4,12913551554084E-003	
3,40625000000000E+002	3,97364422678947E-003	
3,41250000000000E+002	4,25481796264648E-003	
3,41875000000000E+002	3,96023411303759E-003	
3,42500000000000E+002	4,31169057264924E-003	
3,43125000000000E+002	4,64412523433566E-003	
3,43750000000000E+002	4,29105339571834E-003	
3,44375000000000E+002	4,50708484277129E-003	
3,45000000000000E+002	4,29904554039240E-003	
3,45625000000000E+002	3,68587742559612E-003	
3,46250000000000E+002	3,92024172469974E-003	
3,46875000000000E+002	4,33567818254232E-003	
3,47500000000000E+002	5,31280366703868E-003	
3,48125000000000E+002	2,92441099882126E-002	
3,48750000000000E+002	3,99057082831860E-002	
3,49375000000000E+002	1,43014620989561E-002	
3,50000000000000E+002	4,31783683598042E-003	
3,50625000000000E+002	4,22859424725175E-003	
3,51250000000000E+002	3,78609728068113E-003	
3,51875000000000E+002	3,62823950126767E-003	
3,52500000000000E+002	4,00629965588450E-003	
3,53125000000000E+002	3,85433272458613E-003	
3,53750000000000E+002	3,51453013718128E-003	
3,54375000000000E+002	3,62909981049597E-003	
3,55000000000000E+002	3,94509779289365E-003	
3,55625000000000E+002	3,55235859751701E-003	
3,56250000000000E+002	3,39935952797532E-003	
3,56875000000000E+002	3,52309038862586E-003	
3,57500000000000E+002	3,38454032316804E-003	
3,58125000000000E+002	3,10225575231016E-003	
3,58750000000000E+002	4,07343078404665E-003	
3,59375000000000E+002	4,17429860681295E-003	
3,60000000000000E+002	3,58301005326211E-003	
3,60625000000000E+002	3,36991995573044E-003	
3,61250000000000E+002	3,49848438054323E-003	
3,61875000000000E+002	3,82108753547072E-003	
3,62500000000000E+002	6,20730593800545E-003	
3,63125000000000E+002	6,34537776932120E-003	
3,63750000000000E+002	3,74819431453943E-003	
3,64375000000000E+002	4,18600440025330E-003	
3,65000000000000E+002	3,53045249357820E-003	
3,65625000000000E+002	2,91745155118406E-003	
3,66250000000000E+002	3,15833557397127E-003	
3,66875000000000E+002	3,60231078229845E-003	
3,67500000000000E+002	3,28389788046479E-003	
3,68125000000000E+002	3,30673018470407E-003	
3,68750000000000E+002	3,45212384127080E-003	
3,69375000000000E+002	3,47997504286468E-003	
3,70000000000000E+002	3,29006765969098E-003	
3,70625000000000E+002	3,66371846757829E-003	
3,71250000000000E+002	3,69974388740957E-003	
3,71875000000000E+002	3,56992380693555E-003	
3,72500000000000E+002	3,40525410138071E-003	
3,73125000000000E+002	3,31875053234398E-003	
3,73750000000000E+002	3,75367817468941E-003	
3,74375000000000E+002	3,45957814715803E-003	
3,75000000000000E+002	3,55764734558761E-003	
3,75625000000000E+002	3,84934060275555E-003	
3,76250000000000E+002	3,68830165825784E-003	
3,76875000000000E+002	4,25646221265197E-003	
3,77500000000000E+002	4,89956000819802E-003	
3,78125000000000E+002	5,23561844602227E-003	
3,78750000000000E+002	5,17281098291278E-003	
3,79375000000000E+002	4,89313388243318E-003	
3,80000000000000E+002	4,81413863599300E-003	
3,80625000000000E+002	4,41917963325977E-003	
3,81250000000000E+002	5,17943920567632E-003	
3,81875000000000E+002	5,62178064137697E-003	
3,82500000000000E+002	6,82553509250283E-003	
3,83125000000000E+002	8,57062265276909E-003	
3,83750000000000E+002	7,60682811960578E-003	
3,84375000000000E+002	8,67451541125774E-003	
3,85000000000000E+002	8,10157228261232E-003	
3,85625000000000E+002	7,10575701668859E-003	
3,86250000000000E+002	6,45296927541494E-003	
3,86875000000000E+002	6,24858029186726E-003	
3,87500000000000E+002	7,56955053657293E-003	
3,88125000000000E+002	7,95800331979990E-003	
3,88750000000000E+002	6,82557979598641E-003	
3,89375000000000E+002	8,02386272698641E-003	
3,90000000000000E+002	8,35671741515398E-003	
3,90625000000000E+002	8,29636771231890E-003	
3,91250000000000E+002	9,07275173813105E-003	
3,91875000000000E+002	9,70828998833895E-003	
3,92500000000000E+002	8,90886131674051E-003	
3,93125000000000E+002	9,14160441607237E-003	
3,93750000000000E+002	1,03789763525128E-002	
3,94375000000000E+002	9,34305787086487E-003	
3,95000000000000E+002	7,78808398172259E-003	
3,95625000000000E+002	7,77864689007401E-003	
3,96250000000000E+002	8,83802585303783E-003	
3,96875000000000E+002	9,69928316771984E-003	
3,97500000000000E+002	1,57488603144884E-002	
3,98125000000000E+002	5,87840154767036E-002	
3,98750000000000E+002	5,59068880975246E-002	
3,99375000000000E+002	1,36112198233604E-002	
4,00000000000000E+002	7,74918589740992E-003	
4,00625000000000E+002	6,12253649160266E-003	
4,01250000000000E+002	6,04488188400865E-003	
4,01875000000000E+002	6,00051460787654E-003	
4,02500000000000E+002	6,01113587617874E-003	
4,03125000000000E+002	6,06214813888073E-003	
4,03750000000000E+002	5,03041967749596E-003	
4,04375000000000E+002	5,00820251181722E-003	
4,05000000000000E+002	5,30674261972308E-003	
4,05625000000000E+002	4,61204629391432E-003	
4,06250000000000E+002	4,54685790464282E-003	
4,06875000000000E+002	3,98952327668667E-003	
4,07500000000000E+002	3,37815680541098E-003	
4,08125000000000E+002	3,26547981239855E-003	
4,08750000000000E+002	3,78755596466362E-003	
4,09375000000000E+002	3,89797636307776E-003	
4,10000000000000E+002	4,17301803827286E-003	
4,10625000000000E+002	4,53403871506453E-003	
4,11250000000000E+002	4,24470892176032E-003	
4,11875000000000E+002	4,57094330340624E-003	
4,12500000000000E+002	5,78905874863267E-003	
4,13125000000000E+002	5,79603249207139E-003	
4,13750000000000E+002	6,87804026529193E-003	
4,14375000000000E+002	7,25567713379860E-003	
4,15000000000000E+002	6,03005522862077E-003	
4,15625000000000E+002	5,66369947046041E-003	
4,16250000000000E+002	5,29780099168420E-003	
4,16875000000000E+002	5,12102525681257E-003	
4,17500000000000E+002	5,64181525260210E-003	
4,18125000000000E+002	5,41921239346266E-003	
4,18750000000000E+002	4,92165796458721E-003	
4,19375000000000E+002	4,51531540602446E-003	
4,20000000000000E+002	4,40067565068603E-003	
4,20625000000000E+002	4,59903758019209E-003	
4,21250000000000E+002	5,52528584375978E-003	
4,21875000000000E+002	6,02926686406136E-003	
4,22500000000000E+002	6,58562872558832E-003	
4,23125000000000E+002	1,48715488612652E-002	
4,23750000000000E+002	1,83904301375151E-002	
4,24375000000000E+002	1,04992035776377E-002	
4,25000000000000E+002	1,17977913469076E-002	
4,25625000000000E+002	7,71218072623014E-003	
4,26250000000000E+002	6,32146466523409E-003	
4,26875000000000E+002	6,52537960559130E-003	
4,27500000000000E+002	5,77141763642430E-003	
4,28125000000000E+002	4,67487238347530E-003	
4,28750000000000E+002	3,94355831667781E-003	
4,29375000000000E+002	3,31087643280625E-003	
4,30000000000000E+002	3,64619004540145E-003	
4,30625000000000E+002	3,54118249379098E-003	
4,31250000000000E+002	3,95613489672542E-003	
4,31875000000000E+002	4,85811894759536E-003	
4,32500000000000E+002	7,54256872460246E-003	
4,33125000000000E+002	6,58329483121634E-003	
4,33750000000000E+002	4,60140267387033E-003	
4,34375000000000E+002	5,27488859370351E-003	
4,35000000000000E+002	4,92239976301789E-003	
4,35625000000000E+002	4,71369316801429E-003	
4,36250000000000E+002	5,59181114658713E-003	
4,36875000000000E+002	5,57636609300971E-003	
4,37500000000000E+002	4,63361572474241E-003	
4,38125000000000E+002	4,15628822520375E-003	
4,38750000000000E+002	4,45132236927748E-003	
4,39375000000000E+002	3,75075172632933E-003	
4,40000000000000E+002	3,61044495366514E-003	
4,40625000000000E+002	3,72649845667183E-003	
4,41250000000000E+002	3,88113316148520E-003	
4,41875000000000E+002	4,37513459473848E-003	
4,42500000000000E+002	4,72872005775571E-003	
4,43125000000000E+002	4,97667258605361E-003	
4,43750000000000E+002	6,14354573190212E-003	
4,44375000000000E+002	4,80775488540530E-003	
4,45000000000000E+002	3,84564814157784E-003	
4,45625000000000E+002	3,59473447315395E-003	
4,46250000000000E+002	3,25804133899510E-003	
4,46875000000000E+002	5,11025032028556E-003	
4,47500000000000E+002	8,54304954409599E-002	
4,48125000000000E+002	2,11584895849228E-001	
4,48750000000000E+002	1,31138890981674E-001	
4,49375000000000E+002	8,59270431101322E-003	
4,50000000000000E+002	3,47337266430259E-003	
4,50625000000000E+002	3,11043113470078E-003	
4,51250000000000E+002	3,03879869170487E-003	
4,51875000000000E+002	2,74188327603042E-003	
4,52500000000000E+002	3,26109305024147E-003	
4,53125000000000E+002	3,80329485051334E-003	
4,53750000000000E+002	3,39069217443466E-003	
4,54375000000000E+002	3,84704908356071E-003	
4,55000000000000E+002	3,10436869040132E-003	
4,55625000000000E+002	3,24407150037587E-003	
4,56250000000000E+002	3,98600241169333E-003	
4,56875000000000E+002	3,63546423614025E-003	
4,57500000000000E+002	3,33441700786352E-003	
4,58125000000000E+002	3,17212939262390E-003	
4,58750000000000E+002	3,19086411036551E-003	
4,59375000000000E+002	3,01241362467408E-003	
4,60000000000000E+002	2,91475234553218E-003	
4,60625000000000E+002	2,93989060446620E-003	
4,61250000000000E+002	3,08867450803518E-003	
4,61875000000000E+002	3,10880341567099E-003	
4,62500000000000E+002	2,88142031058669E-003	
4,63125000000000E+002	2,84957746043801E-003	
4,63750000000000E+002	3,72828822582960E-003	
4,64375000000000E+002	3,53566464036703E-003	
4,65000000000000E+002	3,14823025837541E-003	
4,65625000000000E+002	3,29312775284052E-003	
4,66250000000000E+002	2,61364830657840E-003	
4,66875000000000E+002	2,46628955937922E-003	
4,67500000000000E+002	2,36761732958257E-003	
4,68125000000000E+002	2,62012146413326E-003	
4,68750000000000E+002	2,68822116777301E-003	
4,69375000000000E+002	2,52501340582967E-003	
4,70000000000000E+002	2,58825253695250E-003	
4,70625000000000E+002	2,76811514049768E-003	
4,71250000000000E+002	3,03424173034728E-003	
4,71875000000000E+002	2,95535242184997E-003	
4,72500000000000E+002	2,56493850611150E-003	
4,73125000000000E+002	2,54329340532422E-003	
4,73750000000000E+002	2,36905948258936E-003	
4,74375000000000E+002	2,84985941834748E-003	
4,75000000000000E+002	2,92490562424064E-003	
4,75625000000000E+002	2,64056655578315E-003	
4,76250000000000E+002	3,41070885770023E-003	
4,76875000000000E+002	3,21219372563064E-003	
4,77500000000000E+002	3,08212754316628E-003	
4,78125000000000E+002	2,91419657878578E-003	
4,78750000000000E+002	2,52810330130160E-003	
4,79375000000000E+002	2,46534612961113E-003	
4,80000000000000E+002	2,59339227341115E-003	
4,80625000000000E+002	2,31748865917325E-003	
4,81250000000000E+002	2,14291294105351E-003	
4,81875000000000E+002	2,15549790300429E-003	
4,82500000000000E+002	2,27881199680269E-003	
4,83125000000000E+002	2,77215451933444E-003	
4,83750000000000E+002	4,54971240833402E-003	
4,84375000000000E+002	5,06647862493992E-003	
4,85000000000000E+002	4,16201446205378E-003	
4,85625000000000E+002	5,92932756990194E-003	
4,86250000000000E+002	4,37835417687893E-003	
4,86875000000000E+002	2,72742868401110E-003	
4,87500000000000E+002	2,29317788034678E-003	
4,88125000000000E+002	2,64518498443067E-003	
4,88750000000000E+002	2,73501384072006E-003	
4,89375000000000E+002	2,48697446659207E-003	
4,90000000000000E+002	2,40697385743260E-003	
4,90625000000000E+002	2,06418614834547E-003	
4,91250000000000E+002	2,09224154241383E-003	
4,91875000000000E+002	1,90860533621162E-003	
4,92500000000000E+002	1,78258819505572E-003	
4,93125000000000E+002	1,78408739157021E-003	
4,93750000000000E+002	1,57754356041551E-003	
4,94375000000000E+002	1,60330429207534E-003	
4,95000000000000E+002	2,19916575588286E-003	
4,95625000000000E+002	1,94985535927117E-003	
4,96250000000000E+002	1,52535468805581E-003	
4,96875000000000E+002	2,07473756745458E-003	
4,97500000000000E+002	2,02429872006178E-002	
4,98125000000000E+002	3,11160720884800E-002	
4,98750000000000E+002	1,19912941008806E-002	
4,99375000000000E+002	1,59793009515852E-003	
5,00000000000000E+002	1,53809587936848E-003	
5,00625000000000E+002	1,57660001423210E-003	
5,01250000000000E+002	1,36050384026021E-003	
5,01875000000000E+002	1,31006177980453E-003	
5,02500000000000E+002	1,32812245283276E-003	
5,03125000000000E+002	1,27263728063554E-003	
5,03750000000000E+002	1,44544907379895E-003	
5,04375000000000E+002	1,97055353783071E-003	
5,05000000000000E+002	1,59079639706761E-003	
5,05625000000000E+002	1,68303714599460E-003	
5,06250000000000E+002	1,85049849096686E-003	
5,06875000000000E+002	1,60745356697589E-003	
5,07500000000000E+002	1,63058366160840E-003	
5,08125000000000E+002	1,73353857826442E-003	
5,08750000000000E+002	1,74066610634327E-003	
5,09375000000000E+002	1,49633584078401E-003	
5,10000000000000E+002	1,40793004538864E-003	
5,10625000000000E+002	1,41539191827178E-003	
5,11250000000000E+002	1,37260800693184E-003	
5,11875000000000E+002	1,41615071333945E-003	
5,12500000000000E+002	1,46547809708863E-003	
5,13125000000000E+002	1,57782481983304E-003	
5,13750000000000E+002	1,57306878827512E-003	
5,14375000000000E+002	1,73744873609394E-003	
5,15000000000000E+002	1,96939846500754E-003	
5,15625000000000E+002	1,88542075920850E-003	
5,16250000000000E+002	2,09164852276444E-003	
5,16875000000000E+002	3,13392048701644E-003	
5,17500000000000E+002	2,37416243180633E-003	
5,18125000000000E+002	2,30211112648249E-003	
5,18750000000000E+002	2,23345286212862E-003	
5,19375000000000E+002	2,19865282997489E-003	
5,20000000000000E+002	2,43077427148819E-003	
5,20625000000000E+002	2,61142244562507E-003	
5,21250000000000E+002	2,58089299313724E-003	
5,21875000000000E+002	2,57885060273111E-003	
5,22500000000000E+002	3,27990762889385E-003	
5,23125000000000E+002	4,01299400255084E-003	
5,23750000000000E+002	5,72004588320851E-003	
5,24375000000000E+002	9,91845130920410E-003	
5,25000000000000E+002	8,80067236721516E-003	
5,25625000000000E+002	9,31849144399166E-003	
5,26250000000000E+002	1,45655591040850E-002	
5,26875000000000E+002	8,94721876829863E-003	
5,27500000000000E+002	5,18999760970473E-003	
5,28125000000000E+002	3,47356963902712E-003	
5,28750000000000E+002	3,11695714481175E-003	
5,29375000000000E+002	3,61606711521745E-003	
5,30000000000000E+002	3,34781641140580E-003	
5,30625000000000E+002	3,51006560958922E-003	
5,31250000000000E+002	3,33605566993356E-003	
5,31875000000000E+002	3,45351640135050E-003	
5,32500000000000E+002	3,09539958834648E-003	
5,33125000000000E+002	2,71466257981956E-003	
5,33750000000000E+002	3,15523287281394E-003	
5,34375000000000E+002	3,11136525124311E-003	
5,35000000000000E+002	3,31357237882912E-003	
5,35625000000000E+002	4,06829733401537E-003	
5,36250000000000E+002	3,17977811209857E-003	
5,36875000000000E+002	2,89597781375051E-003	
5,37500000000000E+002	2,60190246626735E-003	
5,38125000000000E+002	2,70443176850677E-003	
5,38750000000000E+002	2,44849734008312E-003	
5,39375000000000E+002	2,18592910096049E-003	
5,40000000000000E+002	2,32300115749240E-003	
5,40625000000000E+002	2,08377721719444E-003	
5,41250000000000E+002	2,03321897424757E-003	
5,41875000000000E+002	2,20065936446190E-003	
5,42500000000000E+002	2,21979757770896E-003	
5,43125000000000E+002	2,24331859499216E-003	
5,43750000000000E+002	2,41627101786435E-003	
5,44375000000000E+002	2,65595456585288E-003	
5,45000000000000E+002	2,73070740513504E-003	
5,45625000000000E+002	2,49525648541749E-003	
5,46250000000000E+002	2,76493700221181E-003	
5,46875000000000E+002	7,88276828825474E-003	
5,47500000000000E+002	3,65260466933250E-002	
5,48125000000000E+002	3,69276888668537E-002	
5,48750000000000E+002	8,18807445466518E-003	
5,49375000000000E+002	2,29319185018539E-003	
5,50000000000000E+002	1,70057988725603E-003	
5,50625000000000E+002	1,39207032043487E-003	
5,51250000000000E+002	1,54816487338394E-003	
5,51875000000000E+002	1,70305371284485E-003	
5,52500000000000E+002	1,80831167381257E-003	
5,53125000000000E+002	1,82272749952972E-003	
5,53750000000000E+002	1,93206639960408E-003	
5,54375000000000E+002	2,07675015553832E-003	
5,55000000000000E+002	2,00291047804058E-003	
5,55625000000000E+002	3,59820504672825E-003	
5,56250000000000E+002	2,96340673230588E-003	
5,56875000000000E+002	2,01614317484200E-003	
5,57500000000000E+002	1,77395681384951E-003	
5,58125000000000E+002	1,61680183373392E-003	
5,58750000000000E+002	1,50995142757893E-003	
5,59375000000000E+002	1,49986043106765E-003	
5,60000000000000E+002	1,49884424172342E-003	
5,60625000000000E+002	1,47675152402371E-003	
5,61250000000000E+002	1,35871558450162E-003	
5,61875000000000E+002	1,28746230620891E-003	
5,62500000000000E+002	1,50273519102484E-003	
5,63125000000000E+002	2,15323525480926E-003	
5,63750000000000E+002	3,21122864261270E-003	
5,64375000000000E+002	4,56714024767280E-003	
5,65000000000000E+002	5,89324627071619E-003	
5,65625000000000E+002	3,95796447992325E-003	
5,66250000000000E+002	4,08791191875935E-003	
5,66875000000000E+002	4,91792662069201E-003	
5,67500000000000E+002	2,92368931695819E-003	
5,68125000000000E+002	2,85834097303450E-003	
5,68750000000000E+002	2,21005012281239E-003	
5,69375000000000E+002	1,61925808060914E-003	
5,70000000000000E+002	1,57869840040803E-003	
5,70625000000000E+002	1,67747878003865E-003	
5,71250000000000E+002	1,47045019548386E-003	
5,71875000000000E+002	1,40953168738633E-003	
5,72500000000000E+002	1,49451789911836E-003	
5,73125000000000E+002	1,66053406428546E-003	
5,73750000000000E+002	1,77261303178966E-003	
5,74375000000000E+002	2,28508422151208E-003	
5,75000000000000E+002	2,06573586910963E-003	
5,75625000000000E+002	3,71303223073483E-003	
5,76250000000000E+002	4,45411354303360E-003	
5,76875000000000E+002	3,22658964432776E-003	
5,77500000000000E+002	4,63532702997327E-003	
5,78125000000000E+002	3,94044304266572E-003	
5,78750000000000E+002	2,94195231981575E-003	
5,79375000000000E+002	2,68885702826083E-003	
5,80000000000000E+002	2,44771176949143E-003	
5,80625000000000E+002	2,00067972764373E-003	
5,81250000000000E+002	1,76515267230570E-003	
5,81875000000000E+002	2,19359202310443E-003	
5,82500000000000E+002	2,95782252214849E-003	
5,83125000000000E+002	4,32669185101986E-003	
5,83750000000000E+002	7,88979418575764E-003	
5,84375000000000E+002	1,46238766610622E-002	
5,85000000000000E+002	1,64538826793432E-002	
5,85625000000000E+002	1,16993831470609E-002	
5,86250000000000E+002	7,66316335648298E-003	
5,86875000000000E+002	1,20283551514149E-002	
5,87500000000000E+002	7,97849334776402E-003	
5,88125000000000E+002	4,95974207296968E-003	
5,88750000000000E+002	4,81510022655129E-003	
5,89375000000000E+002	3,26985120773315E-003	
5,90000000000000E+002	2,32461583800614E-003	
5,90625000000000E+002	1,89843168482184E-003	
5,91250000000000E+002	1,79193844087422E-003	
5,91875000000000E+002	1,83251779526472E-003	
5,92500000000000E+002	2,15338170528412E-003	
5,93125000000000E+002	2,16433149762452E-003	
5,93750000000000E+002	2,14097253046930E-003	
5,94375000000000E+002	3,08018317446113E-003	
5,95000000000000E+002	3,33485240116715E-003	
5,95625000000000E+002	3,23206628672779E-003	
5,96250000000000E+002	4,64344490319490E-003	
5,96875000000000E+002	9,68827307224274E-003	
5,97500000000000E+002	2,25808694958687E-002	
5,98125000000000E+002	1,46319177001715E-002	
5,98750000000000E+002	2,29927990585566E-003	
5,99375000000000E+002	2,09291675128043E-003	
6,00000000000000E+002	2,12119519710541E-003	
6,00625000000000E+002	2,35744239762425E-003	
6,01250000000000E+002	2,52342550083995E-003	
6,01875000000000E+002	2,37330514937639E-003	
6,02500000000000E+002	2,37147952429950E-003	
6,03125000000000E+002	2,40649306215346E-003	
6,03750000000000E+002	3,00320098176599E-003	
6,04375000000000E+002	3,94283141940832E-003	
6,05000000000000E+002	4,56921150907874E-003	
6,05625000000000E+002	4,28322935476899E-003	
6,06250000000000E+002	4,44149132817984E-003	
6,06875000000000E+002	4,67579858377576E-003	
6,07500000000000E+002	4,64829802513123E-003	
6,08125000000000E+002	3,92742594704032E-003	
6,08750000000000E+002	3,64867644384503E-003	
6,09375000000000E+002	3,33736045286059E-003	
6,10000000000000E+002	3,16823949106038E-003	
6,10625000000000E+002	3,23237641714513E-003	
6,11250000000000E+002	3,26037290506065E-003	
6,11875000000000E+002	2,71466863341630E-003	
6,12500000000000E+002	2,36934702843428E-003	
6,13125000000000E+002	2,40142107941210E-003	
6,13750000000000E+002	2,74884817190468E-003	
6,14375000000000E+002	3,44201084226370E-003	
6,15000000000000E+002	3,39331920258701E-003	
6,15625000000000E+002	3,31102707423270E-003	
6,16250000000000E+002	5,30274305492640E-003	
6,16875000000000E+002	4,88635152578354E-003	
6,17500000000000E+002	4,10530436784029E-003	
6,18125000000000E+002	5,37323905155063E-003	
6,18750000000000E+002	3,66201344877481E-003	
6,19375000000000E+002	3,17846448160708E-003	
6,20000000000000E+002	2,94610927812755E-003	
6,20625000000000E+002	2,37867515534163E-003	
6,21250000000000E+002	1,87960162293166E-003	
6,21875000000000E+002	1,62568781524897E-003	
6,22500000000000E+002	2,03419895842671E-003	
6,23125000000000E+002	2,71403836086392E-003	
6,23750000000000E+002	4,37198998406529E-003	
6,24375000000000E+002	8,41024052351713E-003	
6,25000000000000E+002	1,43164126202464E-002	
6,25625000000000E+002	1,35540580376983E-002	
6,26250000000000E+002	8,03859531879425E-003	
6,26875000000000E+002	7,56145920604467E-003	
6,27500000000000E+002	1,01210698485374E-002	
6,28125000000000E+002	6,11557718366385E-003	
6,28750000000000E+002	4,42401878535748E-003	
6,29375000000000E+002	3,49392322823405E-003	
6,30000000000000E+002	2,68000015057623E-003	
6,30625000000000E+002	1,75741338171065E-003	
6,31250000000000E+002	1,43492384813726E-003	
6,31875000000000E+002	1,25882320571691E-003	
6,32500000000000E+002	1,36567512527108E-003	
6,33125000000000E+002	1,45424960646778E-003	
6,33750000000000E+002	1,60067446995527E-003	
6,34375000000000E+002	1,59498385619372E-003	
6,35000000000000E+002	2,26175924763083E-003	
6,35625000000000E+002	1,96826085448265E-003	
6,36250000000000E+002	2,32209358364344E-003	
6,36875000000000E+002	3,02337156608701E-003	
6,37500000000000E+002	2,07089493051171E-003	
6,38125000000000E+002	1,88884267117828E-003	
6,38750000000000E+002	1,59803405404091E-003	
6,39375000000000E+002	1,51171907782555E-003	
6,40000000000000E+002	1,50935247074813E-003	
6,40625000000000E+002	1,26505317166448E-003	
6,41250000000000E+002	1,29720987752080E-003	
6,41875000000000E+002	1,24743045307696E-003	
6,42500000000000E+002	1,35594338644296E-003	
6,43125000000000E+002	1,54896883759648E-003	
6,43750000000000E+002	1,75946147646755E-003	
6,44375000000000E+002	2,10860185325146E-003	
6,45000000000000E+002	3,46390018239617E-003	
6,45625000000000E+002	4,39020711928606E-003	
6,46250000000000E+002	3,24212363921106E-003	
6,46875000000000E+002	5,79675799235702E-003	
6,47500000000000E+002	9,07569099217653E-003	
6,48125000000000E+002	4,02781227603555E-003	
6,48750000000000E+002	1,32713431958109E-003	
6,49375000000000E+002	1,49515492375940E-003	
6,50000000000000E+002	1,61082274280488E-003	
6,50625000000000E+002	1,67602230794728E-003	
6,51250000000000E+002	1,42683996818960E-003	
6,51875000000000E+002	1,39986758586019E-003	
6,52500000000000E+002	1,13929202780128E-003	
6,53125000000000E+002	1,10613903962076E-003	
6,53750000000000E+002	1,26760732382536E-003	
6,54375000000000E+002	1,48273422382772E-003	
6,55000000000000E+002	2,14731250889599E-003	
6,55625000000000E+002	2,51334044151008E-003	
6,56250000000000E+002	2,21301382407546E-003	
6,56875000000000E+002	1,80292432196438E-003	
6,57500000000000E+002	2,21659056842327E-003	
6,58125000000000E+002	2,27080751210451E-003	
6,58750000000000E+002	1,80373725015670E-003	
6,59375000000000E+002	2,44124489836395E-003	
6,60000000000000E+002	2,06329999491572E-003	
6,60625000000000E+002	1,47982686758041E-003	
6,61250000000000E+002	1,55464652925730E-003	
6,61875000000000E+002	1,69339298736304E-003	
6,62500000000000E+002	1,87745457515121E-003	
6,63125000000000E+002	1,52635318227112E-003	
6,63750000000000E+002	1,53024145402014E-003	
6,64375000000000E+002	2,11795209906995E-003	
6,65000000000000E+002	2,76627019047737E-003	
6,65625000000000E+002	2,78095318935812E-003	
6,66250000000000E+002	2,25541763938963E-003	
6,66875000000000E+002	2,06785718910396E-003	
6,67500000000000E+002	2,20557930879295E-003	
6,68125000000000E+002	2,09202826954424E-003	
6,68750000000000E+002	1,75476272124797E-003	
6,69375000000000E+002	1,79991533514112E-003	
6,70000000000000E+002	1,71504088211805E-003	
6,70625000000000E+002	1,49759557098150E-003	
6,71250000000000E+002	1,43856776412576E-003	
6,71875000000000E+002	1,52083754073828E-003	
6,72500000000000E+002	1,58229598309845E-003	
6,73125000000000E+002	1,33359350729734E-003	
6,73750000000000E+002	1,50584406219423E-003	
6,74375000000000E+002	2,03890586271882E-003	
6,75000000000000E+002	2,65255616977811E-003	
6,75625000000000E+002	3,17713362164795E-003	
6,76250000000000E+002	2,76796193793416E-003	
6,76875000000000E+002	2,70667672157288E-003	
6,77500000000000E+002	3,07132722809911E-003	
6,78125000000000E+002	3,32518923096359E-003	
6,78750000000000E+002	2,44644959457219E-003	
6,79375000000000E+002	3,03232017904520E-003	
6,80000000000000E+002	2,69769504666328E-003	
6,80625000000000E+002	1,84313976205885E-003	
6,81250000000000E+002	2,01323395594954E-003	
6,81875000000000E+002	1,49826693814248E-003	
6,82500000000000E+002	1,48840656038374E-003	
6,83125000000000E+002	1,46403256803751E-003	
6,83750000000000E+002	1,65304983966053E-003	
6,84375000000000E+002	2,93654436245561E-003	
6,85000000000000E+002	4,74852323532104E-003	
6,85625000000000E+002	6,40234909951687E-003	
6,86250000000000E+002	6,17299368605018E-003	
6,86875000000000E+002	5,58238523080945E-003	
6,87500000000000E+002	5,29415998607874E-003	
6,88125000000000E+002	4,07184986397624E-003	
6,88750000000000E+002	4,66985069215298E-003	
6,89375000000000E+002	3,66459134966135E-003	
6,90000000000000E+002	2,09757988341153E-003	
6,90625000000000E+002	2,07873480394483E-003	
6,91250000000000E+002	1,83543656021357E-003	
6,91875000000000E+002	1,49044941645116E-003	
6,92500000000000E+002	1,46577239502221E-003	
6,93125000000000E+002	1,44104426726699E-003	
6,93750000000000E+002	1,55791197903454E-003	
6,94375000000000E+002	1,74213445279747E-003	
6,95000000000000E+002	1,62950076628476E-003	
6,95625000000000E+002	1,84569333214313E-003	
6,96250000000000E+002	2,81829992309213E-003	
6,96875000000000E+002	6,46315794438124E-003	
6,97500000000000E+002	5,58731425553560E-003	
6,98125000000000E+002	2,69012618809938E-003	
6,98750000000000E+002	2,06347950734198E-003	
6,99375000000000E+002	1,89947336912155E-003	
7,00000000000000E+002	2,14981311000884E-003	
7,00625000000000E+002	1,83269917033613E-003	
7,01250000000000E+002	1,75191939342767E-003	
7,01875000000000E+002	1,46704202052206E-003	
7,02500000000000E+002	1,39001593925059E-003	
7,03125000000000E+002	1,45947746932507E-003	
7,03750000000000E+002	1,67702278122306E-003	
7,04375000000000E+002	1,88587221782655E-003	
7,05000000000000E+002	2,09377566352487E-003	
7,05625000000000E+002	2,43581109680235E-003	
7,06250000000000E+002	2,50448519363999E-003	
7,06875000000000E+002	2,75012408383191E-003	
7,07500000000000E+002	2,47316015884280E-003	
7,08125000000000E+002	2,05783173441887E-003	
7,08750000000000E+002	3,17151565104723E-003	
7,09375000000000E+002	4,28618350997567E-003	
7,10000000000000E+002	2,77839484624565E-003	
7,10625000000000E+002	2,58949352428317E-003	
7,11250000000000E+002	1,93588563706726E-003	
7,11875000000000E+002	1,60124804824591E-003	
7,12500000000000E+002	1,71866919845343E-003	
7,13125000000000E+002	1,58867973368615E-003	
7,13750000000000E+002	1,64187792688608E-003	
7,14375000000000E+002	1,80967932101339E-003	
7,15000000000000E+002	2,05504801124334E-003	
7,15625000000000E+002	2,38451804034412E-003	
7,16250000000000E+002	3,49350506439805E-003	
7,16875000000000E+002	4,57030162215233E-003	
7,17500000000000E+002	4,41735424101353E-003	
7,18125000000000E+002	4,44111088290811E-003	
7,18750000000000E+002	4,25427081063390E-003	
7,19375000000000E+002	3,62441292963922E-003	
7,20000000000000E+002	3,54042509570718E-003	
7,20625000000000E+002	2,82966997474432E-003	
7,21250000000000E+002	2,31728190556169E-003	
7,21875000000000E+002	2,19376431778073E-003	
7,22500000000000E+002	2,26788711734116E-003	
7,23125000000000E+002	2,47114337980747E-003	
7,23750000000000E+002	2,55408789962530E-003	
7,24375000000000E+002	3,66723141632974E-003	
7,25000000000000E+002	6,83945976197720E-003	
7,25625000000000E+002	1,00640123710036E-002	
7,26250000000000E+002	1,14180529490113E-002	
7,26875000000000E+002	1,09257241711020E-002	
7,27500000000000E+002	9,52993892133236E-003	
7,28125000000000E+002	9,79784596711397E-003	
7,28750000000000E+002	9,18376259505749E-003	
7,29375000000000E+002	7,89905432611704E-003	
7,30000000000000E+002	5,07434643805027E-003	
7,30625000000000E+002	3,11234011314809E-003	
7,31250000000000E+002	2,91350297629833E-003	
7,31875000000000E+002	2,85795610398054E-003	
7,32500000000000E+002	2,88758636452258E-003	
7,33125000000000E+002	2,90402094833553E-003	
7,33750000000000E+002	2,69855000078678E-003	
7,34375000000000E+002	3,09215649031103E-003	
7,35000000000000E+002	3,49147594533861E-003	
7,35625000000000E+002	4,01701685041189E-003	
7,36250000000000E+002	4,81369113549590E-003	
7,36875000000000E+002	4,75219171494246E-003	
7,37500000000000E+002	4,37913276255131E-003	
7,38125000000000E+002	4,19459166005254E-003	
7,38750000000000E+002	4,36955457553267E-003	
7,39375000000000E+002	4,40264167264104E-003	
7,40000000000000E+002	4,24685003235936E-003	
7,40625000000000E+002	4,31653717532754E-003	
7,41250000000000E+002	3,66499763913453E-003	
7,41875000000000E+002	3,65550210699439E-003	
7,42500000000000E+002	3,67961404845119E-003	
7,43125000000000E+002	3,70497419498861E-003	
7,43750000000000E+002	3,75309330411255E-003	
7,44375000000000E+002	3,74510348774493E-003	
7,45000000000000E+002	3,87434964068234E-003	
7,45625000000000E+002	4,37755370512605E-003	
7,46250000000000E+002	4,66628978028893E-003	
7,46875000000000E+002	5,06342248991132E-003	
7,47500000000000E+002	5,96831925213337E-003	
7,48125000000000E+002	5,40120666846633E-003	
7,48750000000000E+002	3,98517213761806E-003	
7,49375000000000E+002	5,11673977598548E-003	
7,50000000000000E+002	4,94033144786954E-003	
7,50625000000000E+002	3,82596882991493E-003	
7,51250000000000E+002	4,01338143274188E-003	
7,51875000000000E+002	3,50499222986400E-003	
7,52500000000000E+002	3,43197048641741E-003	
7,53125000000000E+002	3,65923251956701E-003	
7,53750000000000E+002	3,28754819929600E-003	
7,54375000000000E+002	3,05575435049832E-003	
7,55000000000000E+002	3,87999298982322E-003	
7,55625000000000E+002	4,07376047223806E-003	
7,56250000000000E+002	3,99637036025524E-003	
7,56875000000000E+002	3,44675034284592E-003	
7,57500000000000E+002	3,19128460250795E-003	
7,58125000000000E+002	3,59993730671704E-003	
7,58750000000000E+002	4,14612144231796E-003	
7,59375000000000E+002	5,24965394288301E-003	
7,60000000000000E+002	3,48570803180337E-003	
7,60625000000000E+002	2,98886443488300E-003	
7,61250000000000E+002	2,56958883255720E-003	
7,61875000000000E+002	2,14626570232213E-003	
7,62500000000000E+002	2,31883116066456E-003	
7,63125000000000E+002	2,24684807471931E-003	
7,63750000000000E+002	2,25744163617492E-003	
7,64375000000000E+002	2,65906727872789E-003	
7,65000000000000E+002	2,79233464971185E-003	
7,65625000000000E+002	3,86185827665031E-003	
7,66250000000000E+002	4,50990069657564E-003	
7,66875000000000E+002	3,37137933820486E-003	
7,67500000000000E+002	3,32629610784352E-003	
7,68125000000000E+002	3,34562943316996E-003	
7,68750000000000E+002	2,65103881247342E-003	
7,69375000000000E+002	2,32269521802664E-003	
7,70000000000000E+002	2,54095671698451E-003	
7,70625000000000E+002	2,04286933876574E-003	
7,71250000000000E+002	1,85667071491480E-003	
7,71875000000000E+002	2,21412954851985E-003	
7,72500000000000E+002	2,00564111582935E-003	
7,73125000000000E+002	2,03843112103641E-003	
7,73750000000000E+002	1,90382136497647E-003	
7,74375000000000E+002	1,90659565851092E-003	
7,75000000000000E+002	2,10440228693187E-003	
7,75625000000000E+002	2,24215141497552E-003	
7,76250000000000E+002	2,22103763371706E-003	
7,76875000000000E+002	2,35013477504253E-003	
7,77500000000000E+002	2,93719442561269E-003	
7,78125000000000E+002	3,47469886764884E-003	
7,78750000000000E+002	3,84046090766788E-003	
7,79375000000000E+002	3,60678904689848E-003	
7,80000000000000E+002	2,84140021540225E-003	
7,80625000000000E+002	2,30823783203959E-003	
7,81250000000000E+002	2,19094543717802E-003	
7,81875000000000E+002	2,31470819562674E-003	
7,82500000000000E+002	1,93562486674637E-003	
7,83125000000000E+002	2,02119280584157E-003	
7,83750000000000E+002	2,10555735975504E-003	
7,84375000000000E+002	2,93052382767200E-003	
7,85000000000000E+002	4,31946804746985E-003	
7,85625000000000E+002	8,16133152693510E-003	
7,86250000000000E+002	1,36216944083571E-002	
7,86875000000000E+002	1,05056762695313E-002	
7,87500000000000E+002	5,14078140258789E-003	
7,88125000000000E+002	3,97375505417585E-003	
7,88750000000000E+002	3,44631541520357E-003	
7,89375000000000E+002	4,73339017480612E-003	
7,90000000000000E+002	3,94418044015765E-003	
7,90625000000000E+002	3,23740323074162E-003	
7,91250000000000E+002	2,58673448115587E-003	
7,91875000000000E+002	2,50857789069414E-003	
7,92500000000000E+002	2,07412848249078E-003	
7,93125000000000E+002	2,01931782066822E-003	
7,93750000000000E+002	1,88646290916950E-003	
7,94375000000000E+002	1,68544182088226E-003	
7,95000000000000E+002	1,83910760097206E-003	
7,95625000000000E+002	2,25925957784057E-003	
7,96250000000000E+002	5,20676746964455E-003	
7,96875000000000E+002	8,26993677765131E-003	
7,97500000000000E+002	4,70880791544914E-003	
7,98125000000000E+002	3,43081983737648E-003	
7,98750000000000E+002	4,20477194711566E-003	
7,99375000000000E+002	3,60325397923589E-003	
8,00000000000000E+002	2,88251042366028E-003	
8,00625000000000E+002	2,29365006089211E-003	
8,01250000000000E+002	2,06476124003530E-003	
8,01875000000000E+002	1,87541148625314E-003	
8,02500000000000E+002	1,71006482560188E-003	
8,03125000000000E+002	1,57572608441114E-003	
8,03750000000000E+002	1,85546372085810E-003	
8,04375000000000E+002	2,24697357043624E-003	
8,05000000000000E+002	2,66347522847354E-003	
8,05625000000000E+002	2,38817697390914E-003	
8,06250000000000E+002	3,14270704984665E-003	
8,06875000000000E+002	4,20773169025779E-003	
8,07500000000000E+002	3,69480368681252E-003	
8,08125000000000E+002	4,06188005581498E-003	
8,08750000000000E+002	6,31094165146351E-003	
8,09375000000000E+002	4,70144255086780E-003	
8,10000000000000E+002	4,14713378995657E-003	
8,10625000000000E+002	4,07861219719052E-003	
8,11250000000000E+002	3,32022155635059E-003	
8,11875000000000E+002	3,21476277895272E-003	
8,12500000000000E+002	2,77035520412028E-003	
8,13125000000000E+002	2,59360182099044E-003	
8,13750000000000E+002	2,81145633198321E-003	
8,14375000000000E+002	2,67336680553854E-003	
8,15000000000000E+002	2,59883375838399E-003	
8,15625000000000E+002	3,12633649446070E-003	
8,16250000000000E+002	3,56404064223170E-003	
8,16875000000000E+002	3,80336237140000E-003	
8,17500000000000E+002	5,38712786510587E-003	
8,18125000000000E+002	7,56259774789214E-003	
8,18750000000000E+002	5,63270924612880E-003	
8,19375000000000E+002	6,51916814967990E-003	
8,20000000000000E+002	6,41068862751126E-003	
8,20625000000000E+002	4,20442270115018E-003	
8,21250000000000E+002	3,61731741577387E-003	
8,21875000000000E+002	3,80246760323644E-003	
8,22500000000000E+002	3,45531152561307E-003	
8,23125000000000E+002	3,12573974952102E-003	
8,23750000000000E+002	3,14918113872409E-003	
8,24375000000000E+002	3,27012035995722E-003	
8,25000000000000E+002	5,47355227172375E-003	
8,25625000000000E+002	8,24050419032574E-003	
8,26250000000000E+002	2,09994968026876E-002	
8,26875000000000E+002	3,32194641232491E-002	
8,27500000000000E+002	1,99075229465961E-002	
8,28125000000000E+002	8,49536620080471E-003	
8,28750000000000E+002	6,79334206506610E-003	
8,29375000000000E+002	6,95915846154094E-003	
8,30000000000000E+002	7,78780784457922E-003	
8,30625000000000E+002	6,58631091937423E-003	
8,31250000000000E+002	4,71023097634315E-003	
8,31875000000000E+002	4,64842747896910E-003	
8,32500000000000E+002	4,44014649838209E-003	
8,33125000000000E+002	3,11114289797843E-003	
8,33750000000000E+002	2,36187106929719E-003	
8,34375000000000E+002	2,28613684885204E-003	
8,35000000000000E+002	2,47117271646857E-003	
8,35625000000000E+002	2,74959951639175E-003	
8,36250000000000E+002	3,73517698608339E-003	
8,36875000000000E+002	4,08265646547079E-003	
8,37500000000000E+002	4,73760347813368E-003	
8,38125000000000E+002	3,61769716255367E-003	
8,38750000000000E+002	3,37884877808392E-003	
8,39375000000000E+002	3,96229652687907E-003	
8,40000000000000E+002	3,27448174357414E-003	
8,40625000000000E+002	3,46843875013292E-003	
8,41250000000000E+002	3,50152840837836E-003	
8,41875000000000E+002	3,09752440080047E-003	
8,42500000000000E+002	2,93051940388978E-003	
8,43125000000000E+002	2,77458503842354E-003	
8,43750000000000E+002	2,65037291683257E-003	
8,44375000000000E+002	2,75484309531748E-003	
8,45000000000000E+002	2,97560333274305E-003	
8,45625000000000E+002	3,82140115834773E-003	
8,46250000000000E+002	7,45188072323799E-003	
8,46875000000000E+002	8,76210816204548E-003	
8,47500000000000E+002	6,01447746157646E-003	
8,48125000000000E+002	5,62699651345611E-003	
8,48750000000000E+002	6,33909599855542E-003	
8,49375000000000E+002	6,45333621650934E-003	
8,50000000000000E+002	5,76559500768781E-003	
8,50625000000000E+002	5,49385091289878E-003	
8,51250000000000E+002	4,58987010642886E-003	
8,51875000000000E+002	4,05768165364861E-003	
8,52500000000000E+002	4,99538006260991E-003	
8,53125000000000E+002	3,67969064973295E-003	
8,53750000000000E+002	3,69446491822600E-003	
8,54375000000000E+002	3,73198231682181E-003	
8,55000000000000E+002	3,46607761457562E-003	
8,55625000000000E+002	3,94824007526040E-003	
8,56250000000000E+002	4,54451097175479E-003	
8,56875000000000E+002	5,08467806503177E-003	
8,57500000000000E+002	5,92440040782094E-003	
8,58125000000000E+002	6,36431062594056E-003	
8,58750000000000E+002	5,94037119299173E-003	
8,59375000000000E+002	4,15257876738906E-003	
8,60000000000000E+002	4,65499004349113E-003	
8,60625000000000E+002	4,30180644616485E-003	
8,61250000000000E+002	3,52028571069241E-003	
8,61875000000000E+002	2,99398670904338E-003	
8,62500000000000E+002	2,40708305500448E-003	
8,63125000000000E+002	2,73767975158989E-003	
8,63750000000000E+002	2,68157967366278E-003	
8,64375000000000E+002	2,87290685810149E-003	
8,65000000000000E+002	3,27612808905542E-003	
8,65625000000000E+002	3,32159851677716E-003	
8,66250000000000E+002	3,79133992828429E-003	
8,66875000000000E+002	3,88743006624281E-003	
8,67500000000000E+002	3,39826848357916E-003	
8,68125000000000E+002	3,47399921156466E-003	
8,68750000000000E+002	4,43743076175451E-003	
8,69375000000000E+002	5,98690705373883E-003	
8,70000000000000E+002	4,58270544186234E-003	
8,70625000000000E+002	2,87558720447123E-003	
8,71250000000000E+002	2,52032652497292E-003	
8,71875000000000E+002	2,85727297887206E-003	
8,72500000000000E+002	3,31922597251832E-003	
8,73125000000000E+002	3,32950660958886E-003	
8,73750000000000E+002	3,11555550433695E-003	
8,74375000000000E+002	3,38398152962327E-003	
8,75000000000000E+002	3,08151030912995E-003	
8,75625000000000E+002	3,60678229480982E-003	
8,76250000000000E+002	4,52522141858935E-003	
8,76875000000000E+002	4,73116012290120E-003	
8,77500000000000E+002	4,71391482278705E-003	
8,78125000000000E+002	5,65780326724052E-003	
8,78750000000000E+002	7,71501380950212E-003	
8,79375000000000E+002	6,79817795753479E-003	
8,80000000000000E+002	7,82411266118288E-003	
8,80625000000000E+002	9,27645154297352E-003	
8,81250000000000E+002	7,50141544267535E-003	
8,81875000000000E+002	7,24262325093150E-003	
8,82500000000000E+002	5,21167973056436E-003	
8,83125000000000E+002	3,91759676858783E-003	
8,83750000000000E+002	3,63588146865368E-003	
8,84375000000000E+002	3,41559178195894E-003	
8,85000000000000E+002	3,56411864049733E-003	
8,85625000000000E+002	4,86861914396286E-003	
8,86250000000000E+002	6,45557465031743E-003	
8,86875000000000E+002	8,75510554760695E-003	
8,87500000000000E+002	1,04047814384103E-002	
8,88125000000000E+002	9,88626573234797E-003	
8,88750000000000E+002	7,88091775029898E-003	
8,89375000000000E+002	9,74989216774702E-003	
8,90000000000000E+002	1,04129537940025E-002	
8,90625000000000E+002	7,00690643861890E-003	
8,91250000000000E+002	5,81719307228923E-003	
8,91875000000000E+002	4,46710828691721E-003	
8,92500000000000E+002	4,15452569723129E-003	
8,93125000000000E+002	4,28723404183984E-003	
8,93750000000000E+002	4,56091901287436E-003	
8,94375000000000E+002	3,91153292730451E-003	
8,95000000000000E+002	3,58785130083561E-003	
8,95625000000000E+002	1,06722675263882E-002	
8,96250000000000E+002	2,98085212707520E-002	
8,96875000000000E+002	2,26055905222893E-002	
8,97500000000000E+002	5,04229078069329E-003	
8,98125000000000E+002	4,10670554265380E-003	
8,98750000000000E+002	4,44419262930751E-003	
8,99375000000000E+002	4,66513726860285E-003	
9,00000000000000E+002	4,42125555127859E-003	
9,00625000000000E+002	4,98677277937531E-003	
9,01250000000000E+002	4,69090277329087E-003	
9,01875000000000E+002	3,75071913003922E-003	
9,02500000000000E+002	3,13777802512050E-003	
9,03125000000000E+002	3,33313713781536E-003	
9,03750000000000E+002	3,31166246905923E-003	
9,04375000000000E+002	3,12228640541434E-003	
9,05000000000000E+002	3,16514610312879E-003	
9,05625000000000E+002	3,76452947966754E-003	
9,06250000000000E+002	4,31874720379710E-003	
9,06875000000000E+002	4,55907359719276E-003	
9,07500000000000E+002	6,31625438109040E-003	
9,08125000000000E+002	7,09699606522918E-003	
9,08750000000000E+002	6,80817663669586E-003	
9,09375000000000E+002	7,74639239534736E-003	
9,10000000000000E+002	1,04341153055429E-002	
9,10625000000000E+002	8,20772070437670E-003	
9,11250000000000E+002	6,91099558025599E-003	
9,11875000000000E+002	5,72545221075416E-003	
9,12500000000000E+002	3,82369104772806E-003	
9,13125000000000E+002	3,15172248519957E-003	
9,13750000000000E+002	2,85627110861242E-003	
9,14375000000000E+002	3,24934604577720E-003	
9,15000000000000E+002	3,44535149633884E-003	
9,15625000000000E+002	4,07160166651011E-003	
9,16250000000000E+002	4,59069246426225E-003	
9,16875000000000E+002	4,85843233764172E-003	
9,17500000000000E+002	6,29924610257149E-003	
9,18125000000000E+002	6,83390395715833E-003	
9,18750000000000E+002	9,14273876696825E-003	
9,19375000000000E+002	1,26360049471259E-002	
9,20000000000000E+002	8,32916889339685E-003	
9,20625000000000E+002	9,05115809291601E-003	
9,21250000000000E+002	8,31009540706873E-003	
9,21875000000000E+002	5,52268885076046E-003	
9,22500000000000E+002	4,41089970991015E-003	
9,23125000000000E+002	3,46912746317685E-003	
9,23750000000000E+002	3,27028962783515E-003	
9,24375000000000E+002	3,13558103516698E-003	
9,25000000000000E+002	3,51925962604582E-003	
9,25625000000000E+002	4,23847744241357E-003	
9,26250000000000E+002	5,89491240680218E-003	
9,26875000000000E+002	9,45377815514803E-003	
9,27500000000000E+002	1,40916882082820E-002	
9,28125000000000E+002	1,44736021757126E-002	
9,28750000000000E+002	1,11372051760554E-002	
9,29375000000000E+002	7,60531146079302E-003	
9,30000000000000E+002	7,38332653418183E-003	
9,30625000000000E+002	7,11112422868609E-003	
9,31250000000000E+002	5,94680150970817E-003	
9,31875000000000E+002	3,76399257220328E-003	
9,32500000000000E+002	3,33267427049577E-003	
9,33125000000000E+002	2,70630465820432E-003	
9,33750000000000E+002	2,70848884247243E-003	
9,34375000000000E+002	2,77767074294388E-003	
9,35000000000000E+002	2,82653723843396E-003	
9,35625000000000E+002	3,42795276083052E-003	
9,36250000000000E+002	4,16904455050826E-003	
9,36875000000000E+002	4,92649897933006E-003	
9,37500000000000E+002	5,11832442134619E-003	
9,38125000000000E+002	5,49710309132934E-003	
9,38750000000000E+002	4,80682635679841E-003	
9,39375000000000E+002	4,90722944959998E-003	
9,40000000000000E+002	4,90192230790854E-003	
9,40625000000000E+002	4,23359684646130E-003	
9,41250000000000E+002	4,10286244004965E-003	
9,41875000000000E+002	3,14376689493656E-003	
9,42500000000000E+002	2,91520380415022E-003	
9,43125000000000E+002	2,93338438495994E-003	
9,43750000000000E+002	2,70033557899296E-003	
9,44375000000000E+002	3,11433617025614E-003	
9,45000000000000E+002	3,18855210207403E-003	
9,45625000000000E+002	8,61571170389652E-003	
9,46250000000000E+002	1,50212831795216E-002	
9,46875000000000E+002	7,93368462473154E-003	
9,47500000000000E+002	4,16935328394175E-003	
9,48125000000000E+002	4,58400184288621E-003	
9,48750000000000E+002	5,08739938959479E-003	
9,49375000000000E+002	5,01737603917718E-003	
9,50000000000000E+002	7,08553660660982E-003	
9,50625000000000E+002	8,51338077336550E-003	
9,51250000000000E+002	6,18738587945700E-003	
9,51875000000000E+002	6,00641081109643E-003	
9,52500000000000E+002	4,56598307937384E-003	
9,53125000000000E+002	3,15509154461324E-003	
9,53750000000000E+002	2,94895074330270E-003	
9,54375000000000E+002	2,36803106963634E-003	
9,55000000000000E+002	2,46352585963905E-003	
9,55625000000000E+002	2,98129976727068E-003	
9,56250000000000E+002	2,96112429350615E-003	
9,56875000000000E+002	3,22913751006126E-003	
9,57500000000000E+002	3,76383680850267E-003	
9,58125000000000E+002	4,54928074032068E-003	
9,58750000000000E+002	3,80789372138679E-003	
9,59375000000000E+002	4,30001877248287E-003	
9,60000000000000E+002	4,75314119830728E-003	
9,60625000000000E+002	4,09056851640344E-003	
9,61250000000000E+002	4,05543856322765E-003	
9,61875000000000E+002	3,35428491234779E-003	
9,62500000000000E+002	2,78591038659215E-003	
9,63125000000000E+002	2,39338399842381E-003	
9,63750000000000E+002	2,58773611858487E-003	
9,64375000000000E+002	3,00047011114657E-003	
9,65000000000000E+002	2,97321029938757E-003	
9,65625000000000E+002	2,67106806859374E-003	
9,66250000000000E+002	2,98533565364778E-003	
9,66875000000000E+002	3,66550567559898E-003	
9,67500000000000E+002	4,88335033878684E-003	
9,68125000000000E+002	3,98491183295846E-003	
9,68750000000000E+002	3,15888901241124E-003	
9,69375000000000E+002	3,22899082675576E-003	
9,70000000000000E+002	3,43308853916824E-003	
9,70625000000000E+002	3,37633304297924E-003	
9,71250000000000E+002	5,26196230202913E-003	
9,71875000000000E+002	4,59711253643036E-003	
9,72500000000000E+002	2,53267213702202E-003	
9,73125000000000E+002	2,30126082897186E-003	
9,73750000000000E+002	2,55237985402346E-003	
9,74375000000000E+002	2,49057449400425E-003	
9,75000000000000E+002	2,08521983586252E-003	
9,75625000000000E+002	2,32029356993735E-003	
9,76250000000000E+002	2,70180171355605E-003	
9,76875000000000E+002	2,92872125282884E-003	
9,77500000000000E+002	3,00837866961956E-003	
9,78125000000000E+002	4,46239300072193E-003	
9,78750000000000E+002	4,83612716197968E-003	
9,79375000000000E+002	4,67609800398350E-003	
9,80000000000000E+002	6,48063933476806E-003	
9,80625000000000E+002	5,48449577763677E-003	
9,81250000000000E+002	4,98423632234335E-003	
9,81875000000000E+002	4,14195656776428E-003	
9,82500000000000E+002	2,31453869491816E-003	
9,83125000000000E+002	2,44811619631946E-003	
9,83750000000000E+002	3,28233488835394E-003	
9,84375000000000E+002	3,03962570615113E-003	
9,85000000000000E+002	2,54845805466175E-003	
9,85625000000000E+002	2,63518164865673E-003	
9,86250000000000E+002	3,63616785034537E-003	
9,86875000000000E+002	5,74827473610640E-003	
9,87500000000000E+002	1,26287890598178E-002	
9,88125000000000E+002	1,31319677457213E-002	
9,88750000000000E+002	6,94539770483971E-003	
9,89375000000000E+002	4,02658293023705E-003	
9,90000000000000E+002	4,30656177923083E-003	
9,90625000000000E+002	4,20833285897970E-003	
9,91250000000000E+002	3,44985257834196E-003	
9,91875000000000E+002	2,51755630597472E-003	
9,92500000000000E+002	2,49804882332683E-003	
9,93125000000000E+002	2,52919830381870E-003	
9,93750000000000E+002	2,12954962626100E-003	
9,94375000000000E+002	1,91212585195899E-003	
9,95000000000000E+002	2,10790964774787E-003	
9,95625000000000E+002	4,21400694176555E-003	
9,96250000000000E+002	4,65441867709160E-003	
9,96875000000000E+002	2,36696097999811E-003	
9,97500000000000E+002	2,04771733842790E-003	
9,98125000000000E+002	2,13930546306074E-003	
9,98750000000000E+002	2,56571220234036E-003	
9,99375000000000E+002	2,79962294735014E-003	
1,00000000000000E+003	3,11474967747927E-003	
